[gd_resource type="Theme" load_steps=7 format=3 uid="uid://3dyfnsbr6ls3"]

[ext_resource type="FontFile" uid="uid://dkowwlj7m8dug" path="res://ui/Torrance.ttf" id="1_mhrwc"]
[ext_resource type="Texture2D" uid="uid://dreqvlowk07ih" path="res://ui/button_hover.png" id="2_bpjir"]

[sub_resource type="StyleBoxTexture" id="StyleBoxTexture_tmm0g"]
texture = ExtResource("2_bpjir")

[sub_resource type="StyleBoxEmpty" id="StyleBoxEmpty_1xnve"]

[sub_resource type="StyleBoxEmpty" id="StyleBoxEmpty_ila8i"]

[sub_resource type="StyleBoxEmpty" id="StyleBoxEmpty_teo7k"]

[resource]
Button/colors/font_color = Color(0.0470588, 0.0470588, 0.0509804, 1)
Button/colors/font_focus_color = Color(0.803922, 0.698039, 0.482353, 1)
Button/colors/font_hover_color = Color(0.803922, 0.698039, 0.482353, 1)
Button/font_sizes/font_size = 35
Button/fonts/font = ExtResource("1_mhrwc")
Button/styles/focus = SubResource("StyleBoxTexture_tmm0g")
Button/styles/normal = SubResource("StyleBoxEmpty_1xnve")
CheckButton/colors/font_color = Color(0.0470588, 0.0470588, 0.0509804, 1)
CheckButton/colors/font_pressed_color = Color(0.0470588, 0.0470588, 0.0509804, 1)
GivenNumbers/base_type = &"Button"
GivenNumbers/colors/font_disabled_color = Color(0.0470588, 0.0470588, 0.0509804, 1)
GivenNumbers/font_sizes/font_size = 35
GivenNumbers/fonts/font = ExtResource("1_mhrwc")
GivenNumbers/styles/disabled = SubResource("StyleBoxEmpty_ila8i")
GridContainer/constants/h_separation = 0
GridContainer/constants/v_separation = 0
HSeparator/styles/separator = SubResource("StyleBoxEmpty_teo7k")
Label/font_sizes/font_size = 96
Label/fonts/font = ExtResource("1_mhrwc")
