[gd_scene load_steps=2 format=3 uid="uid://3s0q283je7jp"]

[ext_resource type="Script" path="res://global.gd" id="1_f4v3f"]

[node name="Node" type="Node"]
script = ExtResource("1_f4v3f")

[node name="AudioStreamPlayer" type="AudioStreamPlayer" parent="."]

[connection signal="finished" from="AudioStreamPlayer" to="." method="_on_audio_stream_player_finished"]
